Num_Lock/lock1/simulation/qsim/lock1.msim.vcd
$comment
	File created using the following command:
		vcd file lock1.msim.vcd -direction
$end
$date
	Mon Apr 17 22:33:34 2023
$end
$version
	ModelSim Version 10.5b
$end
$timescale
	1ps
$end

$scope module main_vlg_vec_tst $end
$var reg 1 ! clk $end
$var reg 1 " clk0 $end
$var reg 1 # clk1 $end
$var reg 1 $ clk2 $end
$var reg 1 % clk3 $end
$var reg 1 & judge $end
$var reg 1 ' rst $end
$var reg 1 ( setpw $end
$var wire 1 ) g_rst $end
$var wire 1 * led [6] $end
$var wire 1 + led [5] $end
$var wire 1 , led [4] $end
$var wire 1 - led [3] $end
$var wire 1 . led [2] $end
$var wire 1 / led [1] $end
$var wire 1 0 led [0] $end
$var wire 1 1 led_countdown [6] $end
$var wire 1 2 led_countdown [5] $end
$var wire 1 3 led_countdown [4] $end
$var wire 1 4 led_countdown [3] $end
$var wire 1 5 led_countdown [2] $end
$var wire 1 6 led_countdown [1] $end
$var wire 1 7 led_countdown [0] $end
$var wire 1 8 pos [3] $end
$var wire 1 9 pos [2] $end
$var wire 1 : pos [1] $end
$var wire 1 ; pos [0] $end
$var wire 1 < pos_countdown $end
$var wire 1 = staus $end

$scope module i1 $end
$var wire 1 > gnd $end
$var wire 1 ? vcc $end
$var wire 1 @ unknown $end
$var tri1 1 A devclrn $end
$var tri1 1 B devpor $end
$var tri1 1 C devoe $end
$var wire 1 D pos[0]~output_o $end
$var wire 1 E pos[1]~output_o $end
$var wire 1 F pos[2]~output_o $end
$var wire 1 G pos[3]~output_o $end
$var wire 1 H led[0]~output_o $end
$var wire 1 I led[1]~output_o $end
$var wire 1 J led[2]~output_o $end
$var wire 1 K led[3]~output_o $end
$var wire 1 L led[4]~output_o $end
$var wire 1 M led[5]~output_o $end
$var wire 1 N led[6]~output_o $end
$var wire 1 O pos_countdown~output_o $end
$var wire 1 P led_countdown[0]~output_o $end
$var wire 1 Q led_countdown[1]~output_o $end
$var wire 1 R led_countdown[2]~output_o $end
$var wire 1 S led_countdown[3]~output_o $end
$var wire 1 T led_countdown[4]~output_o $end
$var wire 1 U led_countdown[5]~output_o $end
$var wire 1 V led_countdown[6]~output_o $end
$var wire 1 W staus~output_o $end
$var wire 1 X g_rst~output_o $end
$var wire 1 Y clk~input_o $end
$var wire 1 Z clk~inputclkctrl_outclk $end
$var wire 1 [ Add0~0_combout $end
$var wire 1 \ clock_led~0_combout $end
$var wire 1 ] Add0~1 $end
$var wire 1 ^ Add0~2_combout $end
$var wire 1 _ Add0~3 $end
$var wire 1 ` Add0~4_combout $end
$var wire 1 a Add0~5 $end
$var wire 1 b Add0~6_combout $end
$var wire 1 c Add0~7 $end
$var wire 1 d Add0~8_combout $end
$var wire 1 e Add0~9 $end
$var wire 1 f Add0~10_combout $end
$var wire 1 g Add0~11 $end
$var wire 1 h Add0~12_combout $end
$var wire 1 i clock_led~1_combout $end
$var wire 1 j Add0~13 $end
$var wire 1 k Add0~14_combout $end
$var wire 1 l Add0~15 $end
$var wire 1 m Add0~16_combout $end
$var wire 1 n clock_led~2_combout $end
$var wire 1 o Add0~17 $end
$var wire 1 p Add0~18_combout $end
$var wire 1 q Add0~19 $end
$var wire 1 r Add0~20_combout $end
$var wire 1 s clock_led~3_combout $end
$var wire 1 t Add0~21 $end
$var wire 1 u Add0~22_combout $end
$var wire 1 v clock_led~4_combout $end
$var wire 1 w Add0~23 $end
$var wire 1 x Add0~24_combout $end
$var wire 1 y Add0~25 $end
$var wire 1 z Add0~26_combout $end
$var wire 1 { Add0~27 $end
$var wire 1 | Add0~28_combout $end
$var wire 1 } Add0~29 $end
$var wire 1 ~ Add0~30_combout $end
$var wire 1 !! Add0~31 $end
$var wire 1 "! Add0~32_combout $end
$var wire 1 #! clock_led~5_combout $end
$var wire 1 $! Add0~33 $end
$var wire 1 %! Add0~34_combout $end
$var wire 1 &! clock_led~6_combout $end
$var wire 1 '! Add0~35 $end
$var wire 1 (! Add0~36_combout $end
$var wire 1 )! Add0~37 $end
$var wire 1 *! Add0~38_combout $end
$var wire 1 +! Equal0~5_combout $end
$var wire 1 ,! Add0~39 $end
$var wire 1 -! Add0~40_combout $end
$var wire 1 .! Add0~41 $end
$var wire 1 /! Add0~42_combout $end
$var wire 1 0! Add0~43 $end
$var wire 1 1! Add0~44_combout $end
$var wire 1 2! Add0~45 $end
$var wire 1 3! Add0~46_combout $end
$var wire 1 4! Equal0~6_combout $end
$var wire 1 5! Equal0~1_combout $end
$var wire 1 6! Equal0~0_combout $end
$var wire 1 7! Equal0~2_combout $end
$var wire 1 8! Equal0~3_combout $end
$var wire 1 9! Equal0~4_combout $end
$var wire 1 :! Add0~47 $end
$var wire 1 ;! Add0~48_combout $end
$var wire 1 <! Add0~49 $end
$var wire 1 =! Add0~50_combout $end
$var wire 1 >! Add0~51 $end
$var wire 1 ?! Add0~52_combout $end
$var wire 1 @! Add0~53 $end
$var wire 1 A! Add0~54_combout $end
$var wire 1 B! Equal0~7_combout $end
$var wire 1 C! Add0~55 $end
$var wire 1 D! Add0~56_combout $end
$var wire 1 E! Add0~57 $end
$var wire 1 F! Add0~58_combout $end
$var wire 1 G! Add0~59 $end
$var wire 1 H! Add0~60_combout $end
$var wire 1 I! Add0~61 $end
$var wire 1 J! Add0~62_combout $end
$var wire 1 K! Equal0~8_combout $end
$var wire 1 L! Equal0~9_combout $end
$var wire 1 M! Equal0~10_combout $end
$var wire 1 N! timeout~feeder_combout $end
$var wire 1 O! timeout~q $end
$var wire 1 P! timeout~clkctrl_outclk $end
$var wire 1 Q! pos[2]~2_combout $end
$var wire 1 R! pos[2]~reg0_q $end
$var wire 1 S! pos[3]~3_combout $end
$var wire 1 T! pos[3]~reg0_q $end
$var wire 1 U! pos[1]~1_combout $end
$var wire 1 V! pos[1]~reg0_q $end
$var wire 1 W! pos~0_combout $end
$var wire 1 X! pos[0]~reg0_q $end
$var wire 1 Y! num[1]~0_combout $end
$var wire 1 Z! clk3~input_o $end
$var wire 1 [! clk3~inputclkctrl_outclk $end
$var wire 1 \! u3|out[0]~3_combout $end
$var wire 1 ]! u3|out[0]~feeder_combout $end
$var wire 1 ^! rst~input_o $end
$var wire 1 _! judge~input_o $end
$var wire 1 `! pw3[3]~feeder_combout $end
$var wire 1 a! setpw~input_o $end
$var wire 1 b! always0~1_combout $end
$var wire 1 c! input_rst~1_combout $end
$var wire 1 d! input_start~q $end
$var wire 1 e! u3|out[2]~1_combout $end
$var wire 1 f! u3|out[2]~feeder_combout $end
$var wire 1 g! always2~5_combout $end
$var wire 1 h! clk1~input_o $end
$var wire 1 i! clk1~inputclkctrl_outclk $end
$var wire 1 j! u1|out[0]~3_combout $end
$var wire 1 k! u1|out[0]~feeder_combout $end
$var wire 1 l! u1|out[2]~2_combout $end
$var wire 1 m! u1|out[2]~feeder_combout $end
$var wire 1 n! u1|out~1_combout $end
$var wire 1 o! u1|out[3]~feeder_combout $end
$var wire 1 p! u1|out~0_combout $end
$var wire 1 q! u1|out[1]~feeder_combout $end
$var wire 1 r! pw1[1]~feeder_combout $end
$var wire 1 s! always2~2_combout $end
$var wire 1 t! clk0~input_o $end
$var wire 1 u! clk0~inputclkctrl_outclk $end
$var wire 1 v! u0|out[0]~3_combout $end
$var wire 1 w! u0|out[0]~feeder_combout $end
$var wire 1 x! u0|out[2]~2_combout $end
$var wire 1 y! u0|out[2]~feeder_combout $end
$var wire 1 z! u0|out~1_combout $end
$var wire 1 {! u0|out[3]~feeder_combout $end
$var wire 1 |! u0|out~0_combout $end
$var wire 1 }! u0|out[1]~feeder_combout $end
$var wire 1 ~! pw0[1]~feeder_combout $end
$var wire 1 !" always2~0_combout $end
$var wire 1 "" pw1[3]~feeder_combout $end
$var wire 1 #" always2~3_combout $end
$var wire 1 $" pw0[3]~feeder_combout $end
$var wire 1 %" always2~1_combout $end
$var wire 1 &" always2~4_combout $end
$var wire 1 '" clk2~input_o $end
$var wire 1 (" clk2~inputclkctrl_outclk $end
$var wire 1 )" u2|out[0]~3_combout $end
$var wire 1 *" u2|out[0]~feeder_combout $end
$var wire 1 +" u2|out~1_combout $end
$var wire 1 ," u2|out[3]~feeder_combout $end
$var wire 1 -" u2|out~0_combout $end
$var wire 1 ." u2|out[1]~feeder_combout $end
$var wire 1 /" u2|out[2]~2_combout $end
$var wire 1 0" u2|out[2]~feeder_combout $end
$var wire 1 1" pw2[3]~feeder_combout $end
$var wire 1 2" always2~7_combout $end
$var wire 1 3" pw2[0]~feeder_combout $end
$var wire 1 4" pw2[1]~feeder_combout $end
$var wire 1 5" always2~6_combout $end
$var wire 1 6" pw3[1]~feeder_combout $end
$var wire 1 7" always2~8_combout $end
$var wire 1 8" always2~9_combout $end
$var wire 1 9" always2~10_combout $end
$var wire 1 :" staus$latch~combout $end
$var wire 1 ;" always0~0_combout $end
$var wire 1 <" clock_countdown[0]~32_combout $end
$var wire 1 =" clock_countdown[14]~63 $end
$var wire 1 >" clock_countdown[15]~64_combout $end
$var wire 1 ?" clock_countdown[15]~65 $end
$var wire 1 @" clock_countdown[16]~66_combout $end
$var wire 1 A" clock_countdown[16]~67 $end
$var wire 1 B" clock_countdown[17]~68_combout $end
$var wire 1 C" clock_countdown[17]~69 $end
$var wire 1 D" clock_countdown[18]~70_combout $end
$var wire 1 E" clock_countdown[18]~71 $end
$var wire 1 F" clock_countdown[19]~72_combout $end
$var wire 1 G" clock_countdown[19]~73 $end
$var wire 1 H" clock_countdown[20]~74_combout $end
$var wire 1 I" clock_countdown[20]~75 $end
$var wire 1 J" clock_countdown[21]~76_combout $end
$var wire 1 K" clock_countdown[21]~77 $end
$var wire 1 L" clock_countdown[22]~78_combout $end
$var wire 1 M" clock_countdown[22]~79 $end
$var wire 1 N" clock_countdown[23]~80_combout $end
$var wire 1 O" clock_countdown[23]~81 $end
$var wire 1 P" clock_countdown[24]~82_combout $end
$var wire 1 Q" clock_countdown[24]~83 $end
$var wire 1 R" clock_countdown[25]~84_combout $end
$var wire 1 S" clock_countdown[25]~85 $end
$var wire 1 T" clock_countdown[26]~86_combout $end
$var wire 1 U" clock_countdown[26]~87 $end
$var wire 1 V" clock_countdown[27]~88_combout $end
$var wire 1 W" clock_countdown[27]~89 $end
$var wire 1 X" clock_countdown[28]~90_combout $end
$var wire 1 Y" clock_countdown[28]~91 $end
$var wire 1 Z" clock_countdown[29]~92_combout $end
$var wire 1 [" clock_countdown[29]~93 $end
$var wire 1 \" clock_countdown[30]~94_combout $end
$var wire 1 ]" Equal2~0_combout $end
$var wire 1 ^" Equal2~1_combout $end
$var wire 1 _" Equal3~0_combout $end
$var wire 1 `" clock_countdown[30]~95 $end
$var wire 1 a" clock_countdown[31]~96_combout $end
$var wire 1 b" Equal3~1_combout $end
$var wire 1 c" Equal3~2_combout $end
$var wire 1 d" Equal2~2_combout $end
$var wire 1 e" Equal7~1_combout $end
$var wire 1 f" Equal7~3_combout $end
$var wire 1 g" Equal7~2_combout $end
$var wire 1 h" Equal7~4_combout $end
$var wire 1 i" clock_countdown~34_combout $end
$var wire 1 j" clock_countdown~35_combout $end
$var wire 1 k" clock_countdown[0]~33 $end
$var wire 1 l" clock_countdown[1]~36_combout $end
$var wire 1 m" clock_countdown[1]~37 $end
$var wire 1 n" clock_countdown[2]~38_combout $end
$var wire 1 o" clock_countdown[2]~39 $end
$var wire 1 p" clock_countdown[3]~40_combout $end
$var wire 1 q" clock_countdown[3]~41 $end
$var wire 1 r" clock_countdown[4]~42_combout $end
$var wire 1 s" clock_countdown[4]~43 $end
$var wire 1 t" clock_countdown[5]~44_combout $end
$var wire 1 u" clock_countdown[5]~45 $end
$var wire 1 v" clock_countdown[6]~46_combout $end
$var wire 1 w" clock_countdown[6]~47 $end
$var wire 1 x" clock_countdown[7]~48_combout $end
$var wire 1 y" clock_countdown[7]~49 $end
$var wire 1 z" clock_countdown[8]~50_combout $end
$var wire 1 {" clock_countdown[8]~51 $end
$var wire 1 |" clock_countdown[9]~52_combout $end
$var wire 1 }" clock_countdown[9]~53 $end
$var wire 1 ~" clock_countdown[10]~54_combout $end
$var wire 1 !# clock_countdown[10]~55 $end
$var wire 1 "# clock_countdown[11]~56_combout $end
$var wire 1 ## clock_countdown[11]~57 $end
$var wire 1 $# clock_countdown[12]~58_combout $end
$var wire 1 %# clock_countdown[12]~59 $end
$var wire 1 &# clock_countdown[13]~60_combout $end
$var wire 1 '# clock_countdown[13]~61 $end
$var wire 1 (# clock_countdown[14]~62_combout $end
$var wire 1 )# Equal3~4_combout $end
$var wire 1 *# Equal3~3_combout $end
$var wire 1 +# Equal3~5_combout $end
$var wire 1 ,# Equal5~0_combout $end
$var wire 1 -# Equal5~1_combout $end
$var wire 1 .# Equal4~2_combout $end
$var wire 1 /# Equal4~3_combout $end
$var wire 1 0# Equal5~2_combout $end
$var wire 1 1# Equal7~5_combout $end
$var wire 1 2# Equal7~6_combout $end
$var wire 1 3# Equal7~0_combout $end
$var wire 1 4# Equal7~7_combout $end
$var wire 1 5# Equal7~8_combout $end
$var wire 1 6# Equal3~9_combout $end
$var wire 1 7# Equal3~7_combout $end
$var wire 1 8# Equal3~8_combout $end
$var wire 1 9# Equal3~6_combout $end
$var wire 1 :# Equal3~10_combout $end
$var wire 1 ;# WideNor0~0_combout $end
$var wire 1 <# Equal5~3_combout $end
$var wire 1 =# Equal4~4_combout $end
$var wire 1 ># Equal4~5_combout $end
$var wire 1 ?# Equal4~6_combout $end
$var wire 1 @# Equal4~7_combout $end
$var wire 1 A# Equal2~3_combout $end
$var wire 1 B# Equal6~2_combout $end
$var wire 1 C# WideNor0~combout $end
$var wire 1 D# countdown[0]~3_combout $end
$var wire 1 E# countdown[0]~4_combout $end
$var wire 1 F# countdown[2]~5_combout $end
$var wire 1 G# countdown[2]~6_combout $end
$var wire 1 H# countdown~0_combout $end
$var wire 1 I# countdown~1_combout $end
$var wire 1 J# countdown~2_combout $end
$var wire 1 K# Equal16~0_combout $end
$var wire 1 L# input_rst~0_combout $end
$var wire 1 M# input_rst~q $end
$var wire 1 N# u3|out~0_combout $end
$var wire 1 O# u3|out[3]~feeder_combout $end
$var wire 1 P# u3|out~2_combout $end
$var wire 1 Q# u3|out[1]~feeder_combout $end
$var wire 1 R# pos~4_combout $end
$var wire 1 S# num~3_combout $end
$var wire 1 T# num~4_combout $end
$var wire 1 U# pos~5_combout $end
$var wire 1 V# num~5_combout $end
$var wire 1 W# num~6_combout $end
$var wire 1 X# num~7_combout $end
$var wire 1 Y# num~8_combout $end
$var wire 1 Z# num~1_combout $end
$var wire 1 [# num~2_combout $end
$var wire 1 \# s0|WideOr3~0_combout $end
$var wire 1 ]# s0|WideOr2~0_combout $end
$var wire 1 ^# s0|WideOr1~0_combout $end
$var wire 1 _# s0|WideOr0~0_combout $end
$var wire 1 `# s0|Decoder0~0_combout $end
$var wire 1 a# s0|out~0_combout $end
$var wire 1 b# s0|out~1_combout $end
$var wire 1 c# s1|WideOr3~0_combout $end
$var wire 1 d# s1|WideOr2~0_combout $end
$var wire 1 e# s1|WideOr1~0_combout $end
$var wire 1 f# s1|WideOr0~0_combout $end
$var wire 1 g# s1|Decoder0~0_combout $end
$var wire 1 h# s1|out~0_combout $end
$var wire 1 i# s1|out~1_combout $end
$var wire 1 j# g_rst~reg0_q $end
$var wire 1 k# clock_countdown [31] $end
$var wire 1 l# clock_countdown [30] $end
$var wire 1 m# clock_countdown [29] $end
$var wire 1 n# clock_countdown [28] $end
$var wire 1 o# clock_countdown [27] $end
$var wire 1 p# clock_countdown [26] $end
$var wire 1 q# clock_countdown [25] $end
$var wire 1 r# clock_countdown [24] $end
$var wire 1 s# clock_countdown [23] $end
$var wire 1 t# clock_countdown [22] $end
$var wire 1 u# clock_countdown [21] $end
$var wire 1 v# clock_countdown [20] $end
$var wire 1 w# clock_countdown [19] $end
$var wire 1 x# clock_countdown [18] $end
$var wire 1 y# clock_countdown [17] $end
$var wire 1 z# clock_countdown [16] $end
$var wire 1 {# clock_countdown [15] $end
$var wire 1 |# clock_countdown [14] $end
$var wire 1 }# clock_countdown [13] $end
$var wire 1 ~# clock_countdown [12] $end
$var wire 1 !$ clock_countdown [11] $end
$var wire 1 "$ clock_countdown [10] $end
$var wire 1 #$ clock_countdown [9] $end
$var wire 1 $$ clock_countdown [8] $end
$var wire 1 %$ clock_countdown [7] $end
$var wire 1 &$ clock_countdown [6] $end
$var wire 1 '$ clock_countdown [5] $end
$var wire 1 ($ clock_countdown [4] $end
$var wire 1 )$ clock_countdown [3] $end
$var wire 1 *$ clock_countdown [2] $end
$var wire 1 +$ clock_countdown [1] $end
$var wire 1 ,$ clock_countdown [0] $end
$var wire 1 -$ s0|out [6] $end
$var wire 1 .$ s0|out [5] $end
$var wire 1 /$ s0|out [4] $end
$var wire 1 0$ s0|out [3] $end
$var wire 1 1$ s0|out [2] $end
$var wire 1 2$ s0|out [1] $end
$var wire 1 3$ s0|out [0] $end
$var wire 1 4$ pw1 [3] $end
$var wire 1 5$ pw1 [2] $end
$var wire 1 6$ pw1 [1] $end
$var wire 1 7$ pw1 [0] $end
$var wire 1 8$ s1|out [6] $end
$var wire 1 9$ s1|out [5] $end
$var wire 1 :$ s1|out [4] $end
$var wire 1 ;$ s1|out [3] $end
$var wire 1 <$ s1|out [2] $end
$var wire 1 =$ s1|out [1] $end
$var wire 1 >$ s1|out [0] $end
$var wire 1 ?$ u1|out [3] $end
$var wire 1 @$ u1|out [2] $end
$var wire 1 A$ u1|out [1] $end
$var wire 1 B$ u1|out [0] $end
$var wire 1 C$ u0|out [3] $end
$var wire 1 D$ u0|out [2] $end
$var wire 1 E$ u0|out [1] $end
$var wire 1 F$ u0|out [0] $end
$var wire 1 G$ num [3] $end
$var wire 1 H$ num [2] $end
$var wire 1 I$ num [1] $end
$var wire 1 J$ num [0] $end
$var wire 1 K$ countdown [3] $end
$var wire 1 L$ countdown [2] $end
$var wire 1 M$ countdown [1] $end
$var wire 1 N$ countdown [0] $end
$var wire 1 O$ pw0 [3] $end
$var wire 1 P$ pw0 [2] $end
$var wire 1 Q$ pw0 [1] $end
$var wire 1 R$ pw0 [0] $end
$var wire 1 S$ pw3 [3] $end
$var wire 1 T$ pw3 [2] $end
$var wire 1 U$ pw3 [1] $end
$var wire 1 V$ pw3 [0] $end
$var wire 1 W$ clock_led [31] $end
$var wire 1 X$ clock_led [30] $end
$var wire 1 Y$ clock_led [29] $end
$var wire 1 Z$ clock_led [28] $end
$var wire 1 [$ clock_led [27] $end
$var wire 1 \$ clock_led [26] $end
$var wire 1 ]$ clock_led [25] $end
$var wire 1 ^$ clock_led [24] $end
$var wire 1 _$ clock_led [23] $end
$var wire 1 `$ clock_led [22] $end
$var wire 1 a$ clock_led [21] $end
$var wire 1 b$ clock_led [20] $end
$var wire 1 c$ clock_led [19] $end
$var wire 1 d$ clock_led [18] $end
$var wire 1 e$ clock_led [17] $end
$var wire 1 f$ clock_led [16] $end
$var wire 1 g$ clock_led [15] $end
$var wire 1 h$ clock_led [14] $end
$var wire 1 i$ clock_led [13] $end
$var wire 1 j$ clock_led [12] $end
$var wire 1 k$ clock_led [11] $end
$var wire 1 l$ clock_led [10] $end
$var wire 1 m$ clock_led [9] $end
$var wire 1 n$ clock_led [8] $end
$var wire 1 o$ clock_led [7] $end
$var wire 1 p$ clock_led [6] $end
$var wire 1 q$ clock_led [5] $end
$var wire 1 r$ clock_led [4] $end
$var wire 1 s$ clock_led [3] $end
$var wire 1 t$ clock_led [2] $end
$var wire 1 u$ clock_led [1] $end
$var wire 1 v$ clock_led [0] $end
$var wire 1 w$ u3|out [3] $end
$var wire 1 x$ u3|out [2] $end
$var wire 1 y$ u3|out [1] $end
$var wire 1 z$ u3|out [0] $end
$var wire 1 {$ u2|out [3] $end
$var wire 1 |$ u2|out [2] $end
$var wire 1 }$ u2|out [1] $end
$var wire 1 ~$ u2|out [0] $end
$var wire 1 !% pw2 [3] $end
$var wire 1 "% pw2 [2] $end
$var wire 1 #% pw2 [1] $end
$var wire 1 $% pw2 [0] $end
$upscope $end
$upscope $end
$enddefinitions $end
#0
$dumpvars
0!
0"
1#
0$
0%
1&
0'
0(
x)
x0
x/
x.
x-
x,
x+
x*
x7
x6
x5
x4
x3
x2
x1
x;
x:
x9
x8
1<
x=
0>
1?
x@
1A
1B
1C
xD
xE
xF
xG
xH
xI
xJ
xK
xL
xM
xN
1O
xP
xQ
xR
xS
xT
xU
xV
xW
xX
0Y
xZ
x[
x\
x]
x^
x_
x`
xa
xb
xc
xd
xe
xf
xg
xh
xi
xj
xk
xl
xm
xn
xo
xp
xq
xr
xs
xt
xu
xv
xw
xx
xy
xz
x{
x|
x}
x~
x!!
x"!
x#!
x$!
x%!
x&!
x'!
x(!
x)!
x*!
x+!
x,!
x-!
x.!
x/!
x0!
x1!
x2!
x3!
x4!
x5!
x6!
x7!
x8!
x9!
x:!
x;!
x<!
x=!
x>!
x?!
x@!
xA!
xB!
xC!
xD!
xE!
xF!
xG!
xH!
xI!
xJ!
xK!
xL!
xM!
xN!
0O!
xP!
xQ!
0R!
xS!
0T!
xU!
0V!
xW!
0X!
xY!
0Z!
x[!
x\!
x]!
0^!
1_!
x`!
0a!
xb!
xc!
0d!
xe!
xf!
xg!
1h!
xi!
xj!
xk!
xl!
xm!
xn!
xo!
xp!
xq!
xr!
xs!
0t!
xu!
xv!
xw!
xx!
xy!
xz!
x{!
x|!
x}!
x~!
x!"
x""
x#"
x$"
x%"
x&"
0'"
x("
x)"
x*"
x+"
x,"
x-"
x."
x/"
x0"
x1"
x2"
x3"
x4"
x5"
x6"
x7"
x8"
x9"
x:"
x;"
x<"
x="
x>"
x?"
x@"
xA"
xB"
xC"
xD"
xE"
xF"
xG"
xH"
xI"
xJ"
xK"
xL"
xM"
xN"
xO"
xP"
xQ"
xR"
xS"
xT"
xU"
xV"
xW"
xX"
xY"
xZ"
x["
x\"
x]"
x^"
x_"
x`"
xa"
xb"
xc"
xd"
xe"
xf"
xg"
xh"
xi"
xj"
xk"
xl"
xm"
xn"
xo"
xp"
xq"
xr"
xs"
xt"
xu"
xv"
xw"
xx"
xy"
xz"
x{"
x|"
x}"
x~"
x!#
x"#
x##
x$#
x%#
x&#
x'#
x(#
x)#
x*#
x+#
x,#
x-#
x.#
x/#
x0#
x1#
x2#
x3#
x4#
x5#
x6#
x7#
x8#
x9#
x:#
x;#
x<#
x=#
x>#
x?#
x@#
xA#
xB#
xC#
xD#
xE#
xF#
xG#
xH#
xI#
xJ#
xK#
xL#
0M#
xN#
xO#
xP#
xQ#
xR#
xS#
xT#
xU#
xV#
xW#
xX#
xY#
xZ#
x[#
x\#
x]#
x^#
x_#
x`#
xa#
xb#
xc#
xd#
xe#
xf#
xg#
xh#
xi#
0j#
0,$
0+$
0*$
0)$
0($
0'$
0&$
0%$
0$$
0#$
0"$
0!$
0~#
0}#
0|#
0{#
0z#
0y#
0x#
0w#
0v#
0u#
0t#
0s#
0r#
0q#
0p#
0o#
0n#
0m#
0l#
0k#
03$
02$
01$
00$
0/$
0.$
0-$
07$
06$
05$
04$
0>$
0=$
0<$
0;$
0:$
09$
08$
0B$
0A$
0@$
0?$
0F$
0E$
0D$
0C$
0J$
0I$
0H$
0G$
0N$
0M$
0L$
zK$
0R$
0Q$
0P$
0O$
0V$
0U$
0T$
0S$
0v$
0u$
0t$
0s$
0r$
0q$
0p$
0o$
0n$
0m$
0l$
0k$
0j$
0i$
0h$
0g$
0f$
0e$
0d$
0c$
0b$
0a$
0`$
0_$
0^$
0]$
0\$
0[$
0Z$
0Y$
0X$
0W$
0z$
0y$
0x$
0w$
0~$
0}$
0|$
0{$
0$%
0#%
0"%
0!%
$end
#208
0Z
0[!
0u!
0("
#222
1i!
#616
1)"
#625
1\!
#637
1j!
#638
1v!
#711
0K#
#714
07!
0+!
#718
09#
#757
01"
#763
1W!
#764
0r!
03"
#767
1]"
#854
0o"
0k"
0A"
#855
0="
0s"
0E"
0}
0a
#856
0%#
0!#
0{"
0)!
0y
0e
#857
0I!
0.!
#858
0E!
0@!
0<!
0]
#860
0w"
#861
0M"
#862
02!
#874
1B!
#881
0Y"
0I"
#882
0U"
0Q"
#887
05!
#901
0P#
#902
0x!
#905
1<"
#909
1[
#918
0+"
#923
0e!
#931
04"
#935
0n!
#938
0z!
#950
0R#
#952
0~!
#955
0$"
0p!
#956
1U#
#965
1!"
#967
1Y!
#969
0|!
#973
0/"
#985
16!
#989
0N#
#991
0b#
#993
0]#
#994
12#
#995
1?"
#996
1'#
1u"
1q"
1!!
1{
1c
0^#
0_#
#997
1G"
1,!
1g
#998
1G!
10!
1m"
1_
#999
1C!
#1000
1}"
1q
#1001
1l
#1002
1>!
1:!
#1021
1##
#1022
1["
1W"
1K"
#1024
1C"
#1025
1y"
18!
#1026
1S"
1O"
1^"
#1028
0o
#1033
1*"
#1034
0?#
#1042
1]!
#1048
07#
#1050
0=#
#1053
0t
#1054
0j
#1061
06#
#1069
0$!
#1081
1_"
0<#
#1091
14!
#1093
0)#
#1095
0`"
#1098
0l!
#1100
06"
#1108
0Q!
0S!
#1113
0""
#1115
1%"
#1129
0\#
#1130
0a#
#1131
0`#
#1133
0I#
#1134
1d"
#1135
0`!
#1155
1g!
#1157
0-"
0P!
#1163
1w
#1202
1k!
#1203
1w!
#1206
1K!
#1262
0-#
#1264
0*#
#1293
09!
#1313
0Q#
#1315
0y!
#1331
1b"
#1333
0,"
#1335
13#
0f!
#1343
0c"
#1353
0{!
#1355
1U!
#1366
0.#
#1369
0q!
#1380
1'!
#1381
0}!
#1386
00"
#1400
0O#
#1404
11#
1s!
#1419
0h#
#1421
00#
#1426
0M!
#1431
0B"
0l"
0p"
0,#
#1432
0b
0~
0F"
0t"
0>"
#1433
0f
0z
0*!
0|"
0"#
0&#
#1434
0/!
0J!
#1435
0^
0=!
0A!
0F!
#1437
0x"
1i#
#1438
0N"
#1439
03!
#1442
1f#
#1446
1f"
#1451
1e"
#1454
1#"
#1458
0J"
0Z"
#1459
0R"
0V"
#1462
17"
#1469
15"
#1480
0"!
#1482
12"
#1510
0m!
#1514
0o!
#1558
1g#
#1568
0."
#1572
0@"
#1573
0d
0|
0r"
0v"
0(#
#1574
0h
0-!
0H"
#1575
0`
0n"
01!
0H!
#1576
0D!
#1577
0r
0~"
#1578
0m
#1579
0;!
0?!
#1584
08#
#1598
0$#
#1599
0L"
0X"
0\"
#1601
0D"
#1602
0z"
#1603
0P"
0T"
#1605
0p
#1622
0@#
#1623
1L!
#1627
0>#
#1630
0u
#1631
0k
#1646
0%!
#1651
1g"
#1653
0e#
#1657
0B#
#1672
0a"
#1739
1c#
#1740
0x
#1743
1d#
#1770
0:#
#1803
0+#
#1804
0/#
#1910
0N!
#1935
1\
#1957
0(!
#1992
0Y#
#2009
14#
#2013
1&"
#2022
0W#
#2030
1V#
#2036
1S#
#2037
1Z#
#2038
1X#
#2041
0[#
#2066
1h"
#2171
1i"
1A#
#2200
0v
#2300
0T#
#2351
0n
#2369
18"
#2449
0#!
#2504
0s
#2544
0i
#2549
0&!
#2796
0H#
#3102
15#
#3158
19"
#3377
0J#
#3573
1:"
#3661
0;#
#3773
0F
09
#3810
1K
1-
#3824
1D
1;
#3843
1J
1.
#3907
0Q
06
#3916
0G
08
#4051
1L
1,
#4053
0P
1N
1*
07
#4109
1C#
#4111
1c!
#4114
0H
00
#4140
0V
01
#4169
0L#
#4180
0R
05
#4196
0U
02
#4301
0X
0)
#4352
0E
0:
#4418
0j"
#4430
1;"
#4557
0S
04
#4573
0G#
#4580
0T
03
#4645
0E#
#4770
0b!
#5000
1!
0#
1$
1%
#5366
1F#
#5382
1M
1+
#5708
0D#
#5766
1Z!
1'"
1Y
#5812
0h!
#5988
1Z
1("
1[!
#5992
1I
1/
#6020
0i!
#7845
1>$
1=$
1;$
1:$
18$
#7855
1d!
#7950
1W
1=
#8357
1v$
#9190
0[
#9282
1]
#9360
06!
#9889
1^
#9947
0\
#10000
0!
#10812
0Y
#11020
0Z
#11816
1Q
16
#11996
1P
17
#12120
1V
11
#12495
1S
14
#12538
1T
13
#15000
1"
1#
0$
0%
1!
#15766
1Y
1h!
1t!
#15812
0Z!
0'"
#15988
1u!
1i!
1Z
#16020
0("
0[!
#17857
1B$
#17860
1F$
#18357
0v$
1u$
#18384
0j!
#18385
0v!
#18742
1p!
#18747
1|!
#18756
0!"
#18864
1[#
#18964
0k!
#18965
0w!
#19135
0_
#19159
1q!
#19162
1}!
#19201
0^
#19215
0]
#19266
1[
#19280
0s!
#19288
1_
#19468
0&"
#19822
1^
#20000
0"
1$
0!
#20067
1\
#20548
09"
#20766
1'"
#20812
0Y
0t!
#20959
0:"
#20988
1("
#21020
0u!
0Z
#21798
0;"
#21802
1j"
#21957
1G#
#22016
1E#
#22711
0F#
#22851
1~$
#23003
1D#
#23354
0)"
#23611
13"
#23731
1-"
#23767
0*"
#23896
0G#
#23900
0E#
#23943
05"
#24146
1."
#24520
08"
#25000
0#
1%
1"
1!
#25197
0W
0=
#25766
1Y
1t!
1Z!
#25812
0h!
#25988
1[!
1u!
1Z
#26020
0i!
#27855
1,$
#27856
1z$
#27860
0F$
1E$
#28357
1v$
#28360
0|!
#28374
0\!
#28498
1v!
#28685
0<"
#28721
1~!
#28733
1P#
#28772
0}!
#28777
1k"
#28788
0]!
#28847
1|!
#28957
0_"
#29063
1w!
#29149
1Q#
#29190
0[
#29262
1}!
#29282
1]
#29347
07"
#29355
0_
#29384
1l"
#29549
04#
#29859
0^
#29947
0\
#29962
1`
#30000
1#
0"
0!
#30529
05#
#30766
1h!
#30812
0Y
0t!
#30988
1i!
#31020
0u!
0Z
#31130
1;#
#31237
1F#
#31531
0C#
